Estimate the integral index of connectivity (IIC) or the probability of connectivity (PC) — MK_dPCIIC • Makurhini
…
data("vegetation_patches", package = "Makurhini")
nrow(vegetation_patches) # Number of patches
#> [1] 142
#Two distance threshold,
IIC <- MK_dPCIIC(nodes = vegetation_patches, attribute = NULL,
                distance = list(type = "centroid"),
                metric = "IIC", distance_thresholds = c(5000, 10000)) # 5 and 10 km
IIC
#> $d5000
#> Simple feature collection with 142 features and 5 fields
#> geometry type:  POLYGON
#> dimension:      XY
#> bbox:           xmin: 3340120 ymin: 322869.6 xmax: 3739484 ymax: 696540.5
#> CRS:            +proj=lcc +lat_1=17.5 +lat_2=29.5 +lat_0=12 +lon_0=-102 +x_0=2500000 +y_0=0 +datum=WGS84 +units=m +no_defs
#> # A tibble: 142 x 6
#>       id   dIIC dIICintra dIICflux dIICconnector                        geometry
#>    <int>  <dbl>     <dbl>    <dbl>         <dbl>                   <POLYGON [m]>
#>  1     1 89.2    88.5      0.362           0.360 ((3676911 589967.3, 3676931 58~
#>  2     2  0.741   0.0182   0.00770         0.715 ((3558044 696202.5, 3557972 69~
#>  3     3  0.735   0.0120   0.00626         0.717 ((3569169 687776.4, 3569146 68~
#>  4     4  0.724   0.00116  0.00195         0.721 ((3547317 685713.2, 3547363 68~
#>  5     5  0.728   0.00557  0.00427         0.719 ((3567471 684357.4, 3567380 68~
#>  6     6  0.737   0.0142   0.00680         0.716 ((3590569 672451.7, 3590090 67~
#>  7     7  0.758   0.0353   0.0107          0.712 ((3570789 670959.4, 3570860 67~
#>  8     8  0.724   0.00152  0.00223         0.721 ((3440118 666273.2, 3440372 66~
#>  9     9  0.725   0.00164  0.00231         0.721 ((3451637 671232.4, 3451616 67~
#> 10    10  0.730   0.00664  0.00466         0.718 ((3444396 671675.7, 3444715 67~
#> # ... with 132 more rows
#> 
#> $d10000
#> Simple feature collection with 142 features and 5 fields
#> geometry type:  POLYGON
#> dimension:      XY
#> bbox:           xmin: 3340120 ymin: 322869.6 xmax: 3739484 ymax: 696540.5
#> CRS:            +proj=lcc +lat_1=17.5 +lat_2=29.5 +lat_0=12 +lon_0=-102 +x_0=2500000 +y_0=0 +datum=WGS84 +units=m +no_defs
#> # A tibble: 142 x 6
#>       id   dIIC dIICintra dIICflux dIICconnector                        geometry
#>    <int>  <dbl>     <dbl>    <dbl>         <dbl>                   <POLYGON [m]>
#>  1     1 88.8    88.1      0.360           0.357 ((3676911 589967.3, 3676931 58~
#>  2     2  0.736   0.0181   0.00766         0.710 ((3558044 696202.5, 3557972 69~
#>  3     3  0.738   0.0119   0.0143          0.712 ((3569169 687776.4, 3569146 68~
#>  4     4  0.719   0.00115  0.00194         0.716 ((3547317 685713.2, 3547363 68~
#>  5     5  0.732   0.00554  0.0124          0.714 ((3567471 684357.4, 3567380 68~
#>  6     6  0.732   0.0141   0.00677         0.711 ((3590569 672451.7, 3590090 67~
#>  7     7  0.753   0.0352   0.0106          0.707 ((3570789 670959.4, 3570860 67~
#>  8     8  0.724   0.00151  0.00642         0.716 ((3440118 666273.2, 3440372 66~
#>  9     9  0.724   0.00163  0.00662         0.716 ((3451637 671232.4, 3451616 67~
#> 10    10  0.732   0.00660  0.0111          0.714 ((3444396 671675.7, 3444715 67~
#> # ... with 132 more rows
…
