Estimate centrality measures. — MK_RMCentrality • Makurhini
…
#Two distance threshold,
centrality_test <- MK_RMCentrality(nodes = vegetation_patches,
                                distance = list(type = "centroid"),
                                 distance_thresholds = c(10000, 100000),
                                 probability = 0.05,
                                 write = NULL)
#> Warning: At centrality.c:2784 :closeness centrality is not well-defined for disconnected graphs
centrality_test
#> $d10000
#> Simple feature collection with 142 features and 7 fields
#> geometry type:  POLYGON
#> dimension:      XY
#> bbox:           xmin: 3340120 ymin: 322869.6 xmax: 3739484 ymax: 696540.5
#> CRS:            +proj=lcc +lat_1=17.5 +lat_2=29.5 +lat_0=12 +lon_0=-102 +x_0=2500000 +y_0=0 +datum=WGS84 +units=m +no_defs
#> # A tibble: 142 x 8
#>       id degree    eigen   close   BWC cluster modules                  geometry
#>    <int>  <dbl>    <dbl>   <dbl> <dbl>   <dbl>   <dbl>             <POLYGON [m]>
#>  1     1      0 2.30e-17 4.99e-5     0       1       1 ((3676911 589967.3, 3676~
#>  2     2      0 2.30e-17 4.99e-5     0       2       2 ((3558044 696202.5, 3557~
#>  3     3      1 0.       5.03e-5     0       3       4 ((3569169 687776.4, 3569~
#>  4     4      0 2.30e-17 4.99e-5     0       4       3 ((3547317 685713.2, 3547~
#>  5     5      1 0.       5.03e-5     0       3       4 ((3567471 684357.4, 3567~
#>  6     6      0 2.30e-17 4.99e-5     0       5       5 ((3590569 672451.7, 3590~
#>  7     7      0 2.30e-17 4.99e-5     0       6       6 ((3570789 670959.4, 3570~
#>  8     8      1 0.       5.07e-5     0       7       7 ((3440118 666273.2, 3440~
#>  9     9      1 0.       5.07e-5     0       7       7 ((3451637 671232.4, 3451~
#> 10    10      2 0.       5.07e-5     1       7       7 ((3444396 671675.7, 3444~
#> # ... with 132 more rows
#> 
#> $`d1e+05`
#> Simple feature collection with 142 features and 7 fields
#> geometry type:  POLYGON
#> dimension:      XY
#> bbox:           xmin: 3340120 ymin: 322869.6 xmax: 3739484 ymax: 696540.5
#> CRS:            +proj=lcc +lat_1=17.5 +lat_2=29.5 +lat_0=12 +lon_0=-102 +x_0=2500000 +y_0=0 +datum=WGS84 +units=m +no_defs
#> # A tibble: 142 x 8
#>       id degree eigen   close    BWC cluster modules                    geometry
#>    <int>  <dbl> <dbl>   <dbl>  <dbl>   <dbl>   <dbl>               <POLYGON [m]>
#>  1     1     32 0.328 0.00307 30.1         1       1 ((3676911 589967.3, 367693~
#>  2     2     22 0.257 0.00309  3.03        1       1 ((3558044 696202.5, 355797~
#>  3     3     18 0.204 0.00301  0.472       1       1 ((3569169 687776.4, 356914~
#>  4     4     26 0.303 0.00317  8.87        1       1 ((3547317 685713.2, 354736~
#>  5     5     23 0.274 0.00311  1.85        1       1 ((3567471 684357.4, 356738~
#>  6     6     26 0.311 0.00313  3.17        1       1 ((3590569 672451.7, 359009~
#>  7     7     30 0.365 0.00326  7.51        1       1 ((3570789 670959.4, 357086~
#>  8     8     26 0.299 0.00325  1.23        1       2 ((3440118 666273.2, 344037~
#>  9     9     24 0.271 0.00315  2.05        1       2 ((3451637 671232.4, 345161~
#> 10    10     26 0.299 0.00325  1.23        1       2 ((3444396 671675.7, 344471~
#> # ... with 132 more rows
…
